{
  "entities": {
    "selections": {
      "SEL_1": {
        "id": "SEL_1",
        "name": "Real Madrid",
        "price": 1.23,
        "parent": "MKT_1"
      },
      "SEL_2": {
        "id": "SEL_2",
        "name": "Barcelona",
        "price": 2.05,
        "parent": "MKT_1"
      },
      "SEL_3": {
        "id": "SEL_3",
        "name": "Ronaldo",
        "price": 1.15,
        "parent": "MKT_2"
      },
      "SEL_4": {
        "id": "SEL_4",
        "name": "Messi",
        "price": 1.3,
        "parent": "MKT_2"
      },
      "SEL_5": {
        "id": "SEL_5",
        "name": "Bale",
        "price": 1.35,
        "parent": "MKT_2"
      },
      "SEL_6": {
        "id": "SEL_6",
        "name": "Atletico",
        "price": 1.4,
        "parent": "MKT_3"
      },
      "SEL_7": {
        "id": "SEL_7",
        "name": "Malaga",
        "price": 3.05,
        "parent": "MKT_3"
      }
    },
    "markets": {
      "MKT_1": {
        "id": "MKT_1",
        "name": "Team to Win",
        "selections": [
          "SEL_1",
          "SEL_2"
        ],
        "parent": "EVT_1"
      },
      "MKT_2": {
        "id": "MKT_2",
        "name": "Player to Score First",
        "selections": [
          "SEL_3",
          "SEL_4",
          "SEL_5"
        ],
        "parent": "EVT_1"
      },
      "MKT_3": {
        "id": "MKT_3",
        "name": "Team to Win",
        "selections": [
          "SEL_6",
          "SEL_7"
        ],
        "parent": "EVT_2"
      }
    },
    "events": {
      "EVT_1": {
        "id": "EVT_1",
        "name": "Real Madrid vs Barcelona",
        "markets": [
          "MKT_1",
          "MKT_2"
        ]
      },
      "EVT_2": {
        "id": "EVT_2",
        "name": "Atletico Madrid vs Malaga",
        "markets": [
          "MKT_3"
        ]
      },
      "EVT_3": {
        "id": "EVT_3",
        "name": "Empty Event that shouldn't render",
        "markets": []
      }
    }
  },
  "result": [
    "EVT_1",
    "EVT_2",
    "EVT_3"
  ]
}